{
  "project_info": {
    "project_number": "57593720750",
    "project_id": "bluetoothllumetes"
  },
  "client": [
    {
      "client_info": {
        "mobilesdk_app_id": "1:57593720750:android:11db037f60c3cde3",
        "android_client_info": {
          "package_name": "com.ainasg.ptillumetes"
        }
      },
      "oauth_client": [],
      "api_key": [
        {
          "current_key": "AIzaSyA3mOb8wf8pY40L67eN0q_rqIgjEL3OQ88"
        }
      ],
      "services": {
        "analytics_service": {
          "status": 1
        },
        "appinvite_service": {
          "status": 1,
          "other_platform_oauth_client": []
        },
        "ads_service": {
          "status": 1
        }
      }
    }
  ],
  "configuration_version": "1"
}